src/test/resources/RealGCD2.vcd
$date
 Fri Nov 4 10:00:21 2016
$end
$version
 Generated by VerilatedVcd
$end
$comment

$end
$timescale  1ns  $end
$scope module TOP $end
 $var wire 1 3 clock $end
 $var wire 16 7 io_in_bits_a $end
 $var wire 16 8 io_in_bits_b $end
 $var wire 1 5 io_in_ready $end
 $var wire 1 6 io_in_valid $end
 $var wire 16 : io_out_bits $end
 $var wire 1 9 io_out_valid $end
 $var wire 1 4 reset $end
  $scope module RealGCD2 $end
   $var wire 16 # GEN_0 $end
   $var wire 16 $ GEN_1 $end
   $var wire 32 A GEN_10 $end
   $var wire 32 B GEN_11 $end
   $var wire 32 C GEN_12 $end
   $var wire 1 % GEN_2 $end
   $var wire 16 & GEN_3 $end
   $var wire 16 ' GEN_4 $end
   $var wire 16 ( GEN_5 $end
   $var wire 16 ) GEN_6 $end
   $var wire 16 * GEN_7 $end
   $var wire 1 + GEN_8 $end
   $var wire 32 @ GEN_9 $end
   $var wire 1 ; clock $end
   $var wire 16 > io_in_bits_a $end
   $var wire 16 ? io_in_bits_b $end
   $var wire 1 - io_in_ready $end
   $var wire 1 = io_in_valid $end
   $var wire 16 , io_out_bits $end
   $var wire 1 . io_out_valid $end
   $var wire 1 1 p $end
   $var wire 1 < reset $end
   $var wire 16 2 ti $end
   $var wire 16 / x $end
   $var wire 16 0 y $end
  $upscope $end
$upscope $end
$enddefinitions $end
$dumpvars
0;
bxxxxxxxxxxxxxxxx )
bxxxxxxxxxxxxxxxx 2
bxxxxxxxxxxxxxxxx >
05
bxxxxxxxxxxxxxxxx #
bxxxxxxxxxxxxxxxx ,
bxxxxxxxxxxxxxxxx &
bxxxxxxxxxxxxxxxx 8
bxxxxxxxxxxxxxxxx /
bxxxxxxxxxxxxxxxxxxxxxxxxxxxxxxxx A
0.
bxxxxxxxxxxxxxxxx 7
bxxxxxxxxxxxxxxxxxxxxxxxxxxxxxxxx @
01
bxxxxxxxxxxxxxxxxxxxxxxxxxxxxxxxx C
bxxxxxxxxxxxxxxxx :
bxxxxxxxxxxxxxxxx (
04
0+
0=
0%
0<
0-
06
bxxxxxxxxxxxxxxxx ?
bxxxxxxxxxxxxxxxx $
09
bxxxxxxxxxxxxxxxx 0
bxxxxxxxxxxxxxxxx '
bxxxxxxxxxxxxxxxxxxxxxxxxxxxxxxxx B
bxxxxxxxxxxxxxxxx *
03
$end
#0
09
b00000000000000000000000000000000 C
14
b00000000000000000000000000000000 B
0+
b00000000000000000000000000000000 @
03
b0000000000000000 8
b0000000000000000 ,
b0000000000000000 #
b0000000000000000 2
b0000000000000000 &
b0000000000000000 0
1-
b0000000000000000 :
b0000000000000000 /
01
0=
0;
b00000000000000000000000000000000 A
b0000000000000000 >
1<
06
b0000000000000000 ?
b0000000000000000 $
0.
b0000000000000000 *
b0000000000000000 (
b0000000000000000 7
b0000000000000000 )
0%
b0000000000000000 '
15
#1
13
1;
#2
0;
03
#3
13
1;
#4
0;
03
#5
13
1;
#6
0;
03
#7
13
1;
#8
0;
03
#9
13
1;
#10
b0000000000000001 '
b0000000000000001 #
1+
0;
b0000000000000001 &
b0000000000000001 8
03
04
16
0<
b0000000000000001 7
b0000000000000001 ?
1%
b0000000000000001 >
b0000000000000001 )
b0000000000000001 *
1=
b0000000000000001 $
#11
0-
b0000000000000001 0
13
b0000000000000001 ,
b0000000000000000 *
b0000000000000001 2
05
1;
11
b0000000000000001 /
b0000000000000001 :
#12
0;
03
#13
b0000000000000010 2
b0000000000000000 &
1.
13
b0000000000000000 0
19
0+
b0000000000000000 )
1;
b0000000000000001 *
b0000000000000001 (
b0000000000000000 $
#14
0;
03
#15
b0000000000000001 0
b0000000000000000 /
01
09
1+
b0000000000000001 &
b0000000000000000 ,
b0000000000000011 2
0.
13
1-
1;
b0000000000000000 :
b0000000000000001 )
15
b0000000000000001 $
#16
b0000000000000010 ?
0;
b0000000000000010 8
b0000000000000010 $
03
b0000000000000010 '
b0000000000000010 *
#17
0-
13
b0000000000000001 ,
b0000000000000100 2
05
1;
11
b0000000000000001 *
b0000000000000001 /
b0000000000000010 0
b0000000000000001 :
#18
0;
03
#19
b0000000000000001 '
b0000000000000001 0
13
b0000000000000000 *
b0000000000000000 (
b0000000000000101 2
1;
b0000000000000001 $
#20
0;
03
#21
b0000000000000000 &
1.
13
b0000000000000000 0
19
0+
b0000000000000110 2
b0000000000000000 )
1;
b0000000000000001 *
b0000000000000001 (
b0000000000000000 $
#22
0;
03
#23
b0000000000000001 0
b0000000000000000 /
01
09
1+
b0000000000000001 &
b0000000000000111 2
b0000000000000000 ,
0.
13
1-
b0000000000000010 $
b0000000000000010 '
1;
b0000000000000000 :
b0000000000000001 )
15
b0000000000000010 *
#24
b0000000000000011 8
b0000000000000011 '
b0000000000000011 ?
0;
b0000000000000011 *
03
b0000000000000011 $
#25
b0000000000000011 0
b0000000000001000 2
0-
13
b0000000000000001 ,
05
b0000000000000010 (
1;
11
b0000000000000001 /
b0000000000000010 *
b0000000000000001 :
#26
0;
03
#27
13
b0000000000000010 $
b0000000000001001 2
b0000000000000010 '
1;
b0000000000000001 *
b0000000000000001 (
b0000000000000010 0
#28
0;
03
#29
b0000000000000001 '
b0000000000000001 0
13
b0000000000000000 *
b0000000000000000 (
1;
b0000000000001010 2
b0000000000000001 $
#30
0;
03
#31
b0000000000000000 &
1.
13
b0000000000000000 0
19
0+
b0000000000000000 )
1;
b0000000000001011 2
b0000000000000001 *
b0000000000000001 (
b0000000000000000 $
#32
0;
03
#33
b0000000000000011 '
b0000000000000001 0
b0000000000000000 /
01
09
1+
b0000000000000011 *
b0000000000000001 &
b0000000000000000 ,
b0000000000001100 2
b0000000000000011 $
0.
13
1-
1;
b0000000000000000 :
b0000000000000001 )
15
#34
b0000000000000100 8
b0000000000000100 ?
b0000000000000100 $
0;
b0000000000000100 '
03
b0000000000000100 *
#35
0-
13
b0000000000000001 ,
05
b0000000000000011 *
b0000000000000011 (
b0000000000001101 2
1;
11
b0000000000000001 /
b0000000000000100 0
b0000000000000001 :
#36
0;
03
#37
b0000000000000011 0
b0000000000000011 '
13
b0000000000000010 (
1;
b0000000000001110 2
b0000000000000011 $
b0000000000000010 *
#38
0;
03
#39
13
b0000000000000010 $
b0000000000000010 '
b0000000000001111 2
1;
b0000000000000001 *
b0000000000000001 (
b0000000000000010 0
#40
0;
03
#41
b0000000000000001 '
b0000000000000001 0
b0000000000010000 2
b0000000000000000 *
b0000000000000000 (
13
1;
b0000000000000001 $
#42
0;
03
#43
b0000000000000000 &
1.
13
b0000000000000000 0
19
0+
b0000000000000000 )
1;
b0000000000000001 *
b0000000000000001 (
b0000000000000000 $
b0000000000010001 2
#44
0;
03
#45
b0000000000000001 0
b0000000000010010 2
b0000000000000000 /
01
09
1+
b0000000000000001 &
b0000000000000000 ,
b0000000000000100 *
0.
13
b0000000000000100 $
1-
b0000000000000100 '
1;
b0000000000000000 :
b0000000000000001 )
15
#46
b0000000000000101 $
b0000000000000101 8
b0000000000000101 *
0;
b0000000000000101 '
b0000000000000101 ?
03
#47
0-
13
b0000000000000001 ,
05
b0000000000010011 2
b0000000000000100 (
11
b0000000000000101 0
b0000000000000001 /
1;
b0000000000000100 *
b0000000000000001 :
#48
0;
03
#49
13
b0000000000000100 $
b0000000000000011 *
b0000000000000100 '
b0000000000000011 (
1;
b0000000000010100 2
b0000000000000100 0
#50
0;
03
#51
b0000000000000011 0
b0000000000000011 '
13
b0000000000000010 (
1;
b0000000000010101 2
b0000000000000011 $
b0000000000000010 *
#52
0;
03
#53
13
b0000000000010110 2
b0000000000000010 $
b0000000000000010 '
1;
b0000000000000001 *
b0000000000000001 (
b0000000000000010 0
#54
0;
03
#55
b0000000000000001 '
b0000000000000001 0
13
b0000000000000000 *
b0000000000000000 (
b0000000000010111 2
1;
b0000000000000001 $
#56
0;
03
#57
b0000000000011000 2
b0000000000000000 &
1.
13
b0000000000000000 0
19
0+
b0000000000000000 )
1;
b0000000000000001 *
b0000000000000001 (
b0000000000000000 $
#58
0;
03
#59
b0000000000000001 0
b0000000000000101 $
b0000000000000000 /
01
09
b0000000000000101 *
1+
b0000000000000001 &
b0000000000000101 '
b0000000000000000 ,
b0000000000011001 2
0.
13
1-
1;
b0000000000000000 :
b0000000000000001 )
15
#60
b0000000000000110 8
b0000000000000110 $
b0000000000000110 ?
0;
b0000000000000110 '
b0000000000000110 *
03
#61
0-
13
b0000000000000001 ,
05
b0000000000000101 *
b0000000000000110 0
b0000000000011010 2
b0000000000000101 (
1;
11
b0000000000000001 /
b0000000000000001 :
#62
0;
03
#63
13
b0000000000000101 $
b0000000000000101 '
b0000000000011011 2
b0000000000000100 (
1;
b0000000000000101 0
b0000000000000100 *
#64
0;
03
#65
13
b0000000000000100 $
b0000000000000011 *
b0000000000000100 '
b0000000000000011 (
b0000000000011100 2
1;
b0000000000000100 0
#66
0;
03
#67
b0000000000000011 0
b0000000000000011 '
13
b0000000000011101 2
b0000000000000010 (
1;
b0000000000000011 $
b0000000000000010 *
#68
0;
03
#69
13
b0000000000000010 $
b0000000000011110 2
b0000000000000010 '
1;
b0000000000000001 *
b0000000000000001 (
b0000000000000010 0
#70
0;
03
#71
b0000000000000001 '
b0000000000000001 0
13
b0000000000000000 *
b0000000000000000 (
1;
b0000000000011111 2
b0000000000000001 $
#72
0;
03
#73
b0000000000000000 &
1.
13
b0000000000000000 0
19
0+
b0000000000000000 )
b0000000000100000 2
1;
b0000000000000001 *
b0000000000000001 (
b0000000000000000 $
#74
0;
03
#75
b0000000000100001 2
b0000000000000001 0
b0000000000000000 /
01
09
b0000000000000110 $
1+
b0000000000000001 &
b0000000000000000 ,
0.
13
b0000000000000110 '
1-
b0000000000000110 *
1;
b0000000000000000 :
b0000000000000001 )
15
#76
b0000000000000111 8
b0000000000000111 $
0;
b0000000000000111 ?
b0000000000000111 '
b0000000000000111 *
03
#77
0-
13
b0000000000000001 ,
b0000000000100010 2
05
b0000000000000110 *
1;
b0000000000000111 0
11
b0000000000000110 (
b0000000000000001 /
b0000000000000001 :
#78
0;
03
#79
13
b0000000000100011 2
b0000000000000110 $
b0000000000000101 *
b0000000000000110 '
b0000000000000110 0
b0000000000000101 (
1;
#80
0;
03
#81
13
b0000000000000101 $
b0000000000100100 2
b0000000000000101 '
b0000000000000100 (
1;
b0000000000000101 0
b0000000000000100 *
#82
0;
03
#83
13
b0000000000000100 $
b0000000000000011 *
b0000000000000100 '
b0000000000000011 (
1;
b0000000000000100 0
b0000000000100101 2
#84
0;
03
#85
b0000000000000011 0
b0000000000000011 '
13
b0000000000100110 2
b0000000000000010 (
1;
b0000000000000011 $
b0000000000000010 *
#86
0;
03
#87
13
b0000000000000010 $
b0000000000000010 '
b0000000000100111 2
1;
b0000000000000001 *
b0000000000000001 (
b0000000000000010 0
#88
0;
03
#89
b0000000000000001 '
b0000000000000001 0
13
b0000000000000000 *
b0000000000000000 (
1;
b0000000000000001 $
b0000000000101000 2
#90
0;
03
#91
b0000000000000000 &
1.
13
b0000000000000000 0
b0000000000101001 2
19
0+
b0000000000000000 )
1;
b0000000000000001 *
b0000000000000001 (
b0000000000000000 $
#92
0;
03
#93
b0000000000000001 0
b0000000000101010 2
b0000000000000000 /
01
09
b0000000000000111 $
1+
b0000000000000001 &
b0000000000000111 '
b0000000000000111 *
b0000000000000000 ,
0.
13
1-
1;
b0000000000000000 :
b0000000000000001 )
15
#94
b0000000000001000 '
0;
b0000000000001000 ?
03
b0000000000001000 *
b0000000000001000 8
b0000000000001000 $
#95
0-
13
b0000000000000001 ,
b0000000000101011 2
05
b0000000000000111 *
b0000000000001000 0
b0000000000000111 (
11
1;
b0000000000000001 /
b0000000000000001 :
#96
0;
03
#97
b0000000000101100 2
13
b0000000000000111 $
b0000000000000111 '
b0000000000000110 *
1;
b0000000000000111 0
b0000000000000110 (
#98
0;
03
#99
13
b0000000000101101 2
b0000000000000110 $
b0000000000000101 *
b0000000000000110 '
b0000000000000110 0
b0000000000000101 (
1;
#100
0;
03
#101
b0000000000101110 2
b0000000000000101 $
13
b0000000000000101 '
b0000000000000100 (
1;
b0000000000000101 0
b0000000000000100 *
#102
0;
03
#103
13
b0000000000000100 $
b0000000000000011 *
b0000000000000100 '
b0000000000000011 (
1;
b0000000000000100 0
b0000000000101111 2
#104
0;
03
#105
b0000000000000011 0
b0000000000000011 '
13
b0000000000110000 2
b0000000000000010 (
1;
b0000000000000011 $
b0000000000000010 *
#106
0;
03
#107
13
b0000000000000010 $
b0000000000000010 '
b0000000000110001 2
1;
b0000000000000001 *
b0000000000000001 (
b0000000000000010 0
#108
0;
03
#109
b0000000000000001 '
b0000000000000001 0
13
b0000000000000000 *
b0000000000000000 (
1;
b0000000000000001 $
b0000000000110010 2
#110
0;
03
#111
b0000000000000000 &
1.
13
b0000000000000000 0
19
0+
b0000000000110011 2
b0000000000000000 )
1;
b0000000000000001 *
b0000000000000001 (
b0000000000000000 $
#112
0;
03
#113
b0000000000000001 0
b0000000000000000 /
01
09
1+
b0000000000000001 &
b0000000000000000 ,
0.
13
b0000000000001000 '
1-
b0000000000001000 *
1;
b0000000000000000 :
b0000000000000001 )
15
b0000000000001000 $
b0000000000110100 2
#114
0;
b0000000000001001 '
03
b0000000000001001 $
b0000000000001001 8
b0000000000001001 ?
b0000000000001001 *
#115
0-
13
b0000000000000001 ,
b0000000000001001 0
05
b0000000000001000 (
b0000000000001000 *
b0000000000110101 2
1;
11
b0000000000000001 /
b0000000000000001 :
#116
0;
03
#117
b0000000000110110 2
13
b0000000000001000 '
b0000000000000111 *
b0000000000001000 0
b0000000000000111 (
1;
b0000000000001000 $
#118
0;
03
#119
13
b0000000000000111 $
b0000000000000111 '
b0000000000000110 *
b0000000000110111 2
b0000000000000111 0
1;
b0000000000000110 (
#120
0;
03
#121
13
b0000000000000110 $
b0000000000000101 *
b0000000000000110 '
b0000000000000110 0
b0000000000000101 (
1;
b0000000000111000 2
#122
0;
03
#123
13
b0000000000000101 $
b0000000000111001 2
b0000000000000101 '
b0000000000000100 (
1;
b0000000000000101 0
b0000000000000100 *
#124
0;
03
#125
13
b0000000000000100 $
b0000000000000011 *
b0000000000000100 '
b0000000000000011 (
b0000000000111010 2
1;
b0000000000000100 0
#126
0;
03
#127
b0000000000000011 0
b0000000000000011 '
13
b0000000000000010 (
1;
b0000000000111011 2
b0000000000000011 $
b0000000000000010 *
#128
0;
03
#129
13
b0000000000111100 2
b0000000000000010 $
b0000000000000010 '
1;
b0000000000000001 *
b0000000000000001 (
b0000000000000010 0
#130
0;
03
#131
b0000000000000001 '
b0000000000000001 0
13
b0000000000000000 *
b0000000000000000 (
b0000000000111101 2
1;
b0000000000000001 $
#132
0;
03
#133
b0000000000000000 &
1.
13
b0000000000000000 0
b0000000000111110 2
19
0+
b0000000000000000 )
1;
b0000000000000001 *
b0000000000000001 (
b0000000000000000 $
#134
0;
03
#135
b0000000000000001 0
b0000000000000000 /
01
09
1+
b0000000000000001 &
b0000000000000000 ,
b0000000000001001 *
b0000000000111111 2
0.
13
1-
b0000000000001001 '
b0000000000001001 $
b0000000000000000 :
b0000000000000001 )
1;
15
#136
b0000000000001010 ?
b0000000000001010 '
0;
b0000000000001010 8
03
b0000000000001010 *
b0000000000001010 $
#137
0-
13
b0000000000000001 ,
05
1;
11
b0000000000001001 (
b0000000000000001 /
b0000000001000000 2
b0000000000001010 0
b0000000000001001 *
b0000000000000001 :
#138
0;
03
#139
13
b0000000000001001 0
b0000000000001000 (
b0000000000001001 '
b0000000000001000 *
b0000000000001001 $
1;
b0000000001000001 2
#140
0;
03
#141
13
b0000000000001000 '
b0000000000000111 *
b0000000000001000 0
b0000000001000010 2
b0000000000000111 (
1;
b0000000000001000 $
#142
0;
03
#143
13
b0000000000000111 $
b0000000000000111 '
b0000000000000110 *
b0000000001000011 2
b0000000000000111 0
1;
b0000000000000110 (
#144
0;
03
#145
13
b0000000000000110 $
b0000000000000101 *
b0000000000000110 '
b0000000001000100 2
b0000000000000110 0
b0000000000000101 (
1;
#146
0;
03
#147
13
b0000000000000101 $
b0000000001000101 2
b0000000000000101 '
b0000000000000100 (
1;
b0000000000000101 0
b0000000000000100 *
#148
0;
03
#149
13
b0000000000000100 $
b0000000000000011 *
b0000000000000100 '
b0000000000000011 (
1;
b0000000000000100 0
b0000000001000110 2
#150
0;
03
#151
b0000000000000011 0
b0000000000000011 '
13
b0000000000000010 (
1;
b0000000001000111 2
b0000000000000011 $
b0000000000000010 *
#152
0;
03
#153
13
b0000000000000010 $
b0000000001001000 2
b0000000000000010 '
1;
b0000000000000001 *
b0000000000000001 (
b0000000000000010 0
#154
0;
03
#155
b0000000000000001 '
b0000000000000001 0
b0000000001001001 2
b0000000000000000 *
b0000000000000000 (
13
1;
b0000000000000001 $
#156
0;
03
#157
b0000000000000000 &
1.
13
b0000000000000000 0
19
0+
b0000000001001010 2
b0000000000000000 )
1;
b0000000000000001 *
b0000000000000001 (
b0000000000000000 $
#158
0;
03
#159
b0000000000000001 0
b0000000000000000 /
01
09
1+
b0000000000000001 &
b0000000000000000 ,
0.
13
b0000000000001010 '
1-
b0000000000001010 *
b0000000000001010 $
1;
b0000000000000000 :
b0000000000000001 )
b0000000001001011 2
15
#160
b0000000000000001 '
b0000000000000001 ?
0;
b0000000000000010 7
b0000000000000010 &
b0000000000000001 8
03
b0000000000000010 #
b0000000000000010 >
b0000000000000001 *
b0000000000000010 )
b0000000000000001 $
#161
0-
b0000000000000010 :
05
b0000000000000001 &
b0000000000000010 (
13
b0000000000000010 ,
b0000000000000010 /
b0000000001001100 2
b0000000000000010 '
1;
11
b0000000000000001 )
b0000000000000010 *
#162
0;
03
#163
13
b0000000000000001 ,
b0000000001001101 2
b0000000000000001 #
b0000000000000010 $
1;
b0000000000000001 *
b0000000000000001 /
b0000000000000001 (
b0000000000000010 0
b0000000000000001 :
#164
0;
03
#165
b0000000000000001 '
b0000000000000001 0
13
b0000000000000000 *
b0000000000000000 (
1;
b0000000000000001 $
b0000000001001110 2
#166
0;
03
#167
b0000000000000000 &
1.
13
b0000000000000000 0
b0000000001001111 2
19
0+
b0000000000000000 )
1;
b0000000000000001 *
b0000000000000001 (
b0000000000000000 $
#168
0;
03
#169
b0000000000000001 0
b0000000000000000 /
01
09
1+
b0000000000000010 #
b0000000000000000 ,
b0000000000000010 )
0.
13
1-
b0000000000000010 &
1;
b0000000000000000 :
b0000000001010000 2
15
b0000000000000001 $
#170
b0000000000000010 ?
0;
b0000000000000010 8
b0000000000000010 $
03
b0000000000000010 '
b0000000000000010 *
#171
0-
13
b0000000000000010 :
b0000000000000000 *
b0000000000000000 (
b0000000000000010 ,
b0000000000000010 /
05
b0000000001010001 2
1;
11
b0000000000000010 0
#172
0;
03
#173
b0000000000000000 &
1.
13
b0000000000000000 0
19
0+
b0000000000000010 (
b0000000000000000 )
1;
b0000000001010010 2
b0000000000000000 $
b0000000000000010 *
#174
0;
03
#175
b0000000000000000 /
01
09
1+
b0000000000000000 ,
b0000000000000010 )
0.
13
1-
b0000000000000010 $
b0000000000000010 &
b0000000001010011 2
1;
b0000000000000000 :
15
b0000000000000010 0
#176
b0000000000000011 8
b0000000000000011 '
b0000000000000011 ?
0;
b0000000000000011 *
03
b0000000000000011 $
#177
b0000000000000011 0
0-
13
b0000000000000010 :
b0000000000000010 ,
b0000000000000010 /
05
1;
11
b0000000000000001 *
b0000000001010100 2
b0000000000000001 (
#178
0;
03
#179
b0000000000000001 0
b0000000001010101 2
13
b0000000000000001 &
b0000000000000010 (
b0000000000000010 '
1;
b0000000000000001 )
b0000000000000001 $
b0000000000000010 *
#180
0;
03
#181
b0000000001010110 2
13
b0000000000000001 ,
b0000000000000001 #
b0000000000000010 $
1;
b0000000000000001 *
b0000000000000001 /
b0000000000000001 (
b0000000000000010 0
b0000000000000001 :
#182
0;
03
#183
b0000000000000001 '
b0000000000000001 0
13
b0000000000000000 *
b0000000000000000 (
b0000000001010111 2
1;
b0000000000000001 $
#184
0;
03
#185
b0000000000000000 &
1.
13
b0000000000000000 0
19
0+
b0000000001011000 2
b0000000000000000 )
1;
b0000000000000001 *
b0000000000000001 (
b0000000000000000 $
#186
0;
03
#187
b0000000000000011 '
b0000000000000001 0
b0000000000000000 /
01
09
1+
b0000000000000011 *
b0000000000000010 #
b0000000000000000 ,
b0000000000000010 )
b0000000000000011 $
0.
b0000000001011001 2
13
1-
b0000000000000010 &
1;
b0000000000000000 :
15
#188
b0000000000000100 8
b0000000000000100 ?
b0000000000000100 $
0;
b0000000000000100 '
03
b0000000000000100 *
#189
0-
13
b0000000000000010 :
b0000000000000010 ,
b0000000000000010 /
05
b0000000000000010 (
1;
11
b0000000001011010 2
b0000000000000100 0
b0000000000000010 *
#190
0;
03
#191
13
b0000000000000000 *
b0000000000000000 (
b0000000001011011 2
b0000000000000010 $
b0000000000000010 '
1;
b0000000000000010 0
#192
0;
03
#193
b0000000001011100 2
b0000000000000000 &
1.
13
b0000000000000000 0
19
0+
b0000000000000010 (
b0000000000000000 )
1;
b0000000000000000 $
b0000000000000010 *
#194
0;
03
#195
b0000000000000000 /
01
09
1+
b0000000000000000 ,
b0000000000000010 )
b0000000000000100 *
0.
13
b0000000001011101 2
b0000000000000100 $
1-
b0000000000000010 &
b0000000000000100 '
1;
b0000000000000000 :
15
b0000000000000010 0
#196
b0000000000000101 $
b0000000000000101 8
b0000000000000101 *
0;
b0000000000000101 '
b0000000000000101 ?
03
#197
0-
b0000000001011110 2
13
b0000000000000010 :
b0000000000000010 ,
b0000000000000010 /
05
b0000000000000011 *
b0000000000000011 (
1;
11
b0000000000000101 0
#198
0;
03
#199
b0000000000000011 0
b0000000000000011 '
13
b0000000001011111 2
1;
b0000000000000001 *
b0000000000000001 (
b0000000000000011 $
#200
0;
03
#201
b0000000000000001 0
13
b0000000000000001 &
b0000000000000010 (
b0000000000000010 '
b0000000001100000 2
1;
b0000000000000001 )
b0000000000000001 $
b0000000000000010 *
#202
0;
03
#203
b0000000000000001 :
13
b0000000000000001 ,
b0000000000000001 #
b0000000000000010 $
1;
b0000000000000001 *
b0000000000000001 /
b0000000000000001 (
b0000000000000010 0
b0000000001100001 2
#204
0;
03
#205
b0000000001100010 2
b0000000000000001 '
b0000000000000001 0
13
b0000000000000000 *
b0000000000000000 (
1;
b0000000000000001 $
#206
0;
03
#207
b0000000000000000 &
1.
13
b0000000000000000 0
b0000000001100011 2
19
0+
b0000000000000000 )
1;
b0000000000000001 *
b0000000000000001 (
b0000000000000000 $
#208
0;
03
#209
b0000000000000001 0
b0000000000000101 $
b0000000000000000 /
01
b0000000001100100 2
b0000000000000101 *
1+
09
b0000000000000101 '
b0000000000000010 #
b0000000000000000 ,
b0000000000000010 )
0.
13
1-
b0000000000000010 &
1;
b0000000000000000 :
15
#210
b0000000000000110 8
b0000000000000110 $
b0000000000000110 ?
0;
b0000000000000110 '
b0000000000000110 *
03
#211
0-
b0000000001100101 2
13
b0000000000000010 :
b0000000000000010 ,
b0000000000000010 /
05
b0000000000000110 0
b0000000000000100 (
11
1;
b0000000000000100 *
#212
0;
03
#213
13
b0000000000000100 $
b0000000000000100 '
b0000000000000010 (
b0000000001100110 2
1;
b0000000000000100 0
b0000000000000010 *
#214
0;
03
#215
13
b0000000000000000 *
b0000000000000000 (
b0000000000000010 $
b0000000001100111 2
b0000000000000010 '
1;
b0000000000000010 0
#216
0;
03
#217
b0000000000000000 &
1.
13
b0000000000000000 0
19
0+
b0000000000000010 (
b0000000000000000 )
b0000000001101000 2
1;
b0000000000000000 $
b0000000000000010 *
#218
0;
03
#219
b0000000000000000 /
01
09
b0000000000000110 $
1+
b0000000001101001 2
b0000000000000000 ,
b0000000000000010 )
0.
13
b0000000000000110 '
1-
b0000000000000010 &
b0000000000000110 *
1;
b0000000000000000 :
15
b0000000000000010 0
#220
b0000000000000111 8
b0000000000000111 $
0;
b0000000000000111 ?
b0000000000000111 '
b0000000000000111 *
03
#221
b0000000001101010 2
0-
13
b0000000000000010 :
b0000000000000010 ,
b0000000000000101 *
b0000000000000010 /
05
b0000000000000101 (
1;
b0000000000000111 0
11
#222
0;
03
#223
13
b0000000000000101 $
b0000000000000011 *
b0000000000000101 '
b0000000000000011 (
b0000000001101011 2
1;
b0000000000000101 0
#224
0;
03
#225
b0000000000000011 0
b0000000000000011 '
13
1;
b0000000000000001 *
b0000000001101100 2
b0000000000000001 (
b0000000000000011 $
#226
0;
03
#227
b0000000000000001 0
b0000000001101101 2
13
b0000000000000001 &
b0000000000000010 (
b0000000000000010 '
1;
b0000000000000001 )
b0000000000000001 $
b0000000000000010 *
#228
0;
03
#229
13
b0000000000000001 ,
b0000000000000001 #
b0000000000000010 $
b0000000001101110 2
1;
b0000000000000001 *
b0000000000000001 /
b0000000000000001 (
b0000000000000010 0
b0000000000000001 :
#230
0;
03
#231
b0000000000000001 '
b0000000000000001 0
13
b0000000000000000 *
b0000000000000000 (
b0000000001101111 2
1;
b0000000000000001 $
#232
0;
03
#233
b0000000000000000 &
1.
13
b0000000000000000 0
19
b0000000001110000 2
0+
b0000000000000000 )
1;
b0000000000000001 *
b0000000000000001 (
b0000000000000000 $
#234
0;
03
#235
b0000000000000001 0
b0000000000000000 /
01
09
b0000000000000111 $
1+
b0000000000000111 '
b0000000001110001 2
b0000000000000111 *
b0000000000000010 #
b0000000000000000 ,
b0000000000000010 )
0.
13
1-
b0000000000000010 &
1;
b0000000000000000 :
15
#236
b0000000000001000 '
0;
b0000000000001000 ?
03
b0000000000001000 *
b0000000000001000 8
b0000000000001000 $
#237
0-
13
b0000000000000010 :
b0000000000000010 ,
b0000000000000010 /
05
b0000000000000110 *
b0000000000001000 0
1;
11
b0000000001110010 2
b0000000000000110 (
#238
0;
03
#239
b0000000001110011 2
13
b0000000000000110 $
b0000000000000110 '
b0000000000000110 0
b0000000000000100 (
1;
b0000000000000100 *
#240
0;
03
#241
13
b0000000000000100 $
b0000000000000100 '
b0000000000000010 (
b0000000001110100 2
1;
b0000000000000100 0
b0000000000000010 *
#242
0;
03
#243
13
b0000000000000000 *
b0000000000000000 (
b0000000000000010 $
b0000000000000010 '
1;
b0000000000000010 0
b0000000001110101 2
#244
0;
03
#245
b0000000001110110 2
b0000000000000000 &
1.
13
b0000000000000000 0
19
0+
b0000000000000010 (
b0000000000000000 )
1;
b0000000000000000 $
b0000000000000010 *
#246
0;
03
#247
b0000000000000000 /
01
09
1+
b0000000000000000 ,
b0000000000000010 )
0.
b0000000001110111 2
13
b0000000000001000 '
1-
b0000000000000010 &
b0000000000001000 *
1;
b0000000000000000 :
15
b0000000000000010 0
b0000000000001000 $
#248
0;
b0000000000001001 '
03
b0000000000001001 $
b0000000000001001 8
b0000000000001001 ?
b0000000000001001 *
#249
b0000000001111000 2
0-
13
b0000000000000010 :
b0000000000000010 ,
b0000000000000010 /
b0000000000001001 0
05
b0000000000000111 *
b0000000000000111 (
11
1;
#250
0;
03
#251
13
b0000000000000111 $
b0000000000000101 *
b0000000000000111 '
b0000000001111001 2
b0000000000000101 (
1;
b0000000000000111 0
#252
0;
03
#253
13
b0000000000000101 $
b0000000000000011 *
b0000000001111010 2
b0000000000000101 '
b0000000000000011 (
1;
b0000000000000101 0
#254
0;
03
#255
b0000000000000011 0
b0000000000000011 '
b0000000001111011 2
13
1;
b0000000000000001 *
b0000000000000001 (
b0000000000000011 $
#256
0;
03
#257
b0000000000000001 0
13
b0000000000000001 &
b0000000000000010 (
b0000000000000010 '
1;
b0000000000000001 )
b0000000001111100 2
b0000000000000001 $
b0000000000000010 *
#258
0;
03
#259
13
b0000000000000001 ,
b0000000000000001 #
b0000000000000010 $
1;
b0000000000000001 *
b0000000000000001 /
b0000000000000001 (
b0000000000000010 0
b0000000001111101 2
b0000000000000001 :
#260
0;
03
#261
b0000000000000001 '
b0000000000000001 0
13
b0000000000000000 *
b0000000000000000 (
b0000000001111110 2
1;
b0000000000000001 $
#262
0;
03
#263
b0000000000000000 &
1.
13
b0000000000000000 0
19
0+
b0000000001111111 2
b0000000000000000 )
1;
b0000000000000001 *
b0000000000000001 (
b0000000000000000 $
#264
0;
03
#265
b0000000000000001 0
b0000000000000000 /
01
09
1+
b0000000000000010 #
b0000000000000000 ,
b0000000000000010 )
b0000000000001001 *
0.
b0000000010000000 2
13
1-
b0000000000000010 &
b0000000000001001 '
b0000000000001001 $
b0000000000000000 :
1;
15
#266
b0000000000001010 ?
b0000000000001010 '
0;
b0000000000001010 8
03
b0000000000001010 *
b0000000000001010 $
#267
0-
13
b0000000000000010 :
b0000000000000010 ,
b0000000000000010 /
05
b0000000000001000 (
b0000000000001000 *
1;
11
b0000000010000001 2
b0000000000001010 0
#268
0;
03
#269
b0000000010000010 2
13
b0000000000001000 '
b0000000000000110 *
b0000000000001000 0
1;
b0000000000000110 (
b0000000000001000 $
#270
0;
03
#271
b0000000010000011 2
13
b0000000000000110 $
b0000000000000110 '
b0000000000000110 0
b0000000000000100 (
1;
b0000000000000100 *
#272
0;
03
#273
b0000000010000100 2
13
b0000000000000100 $
b0000000000000100 '
b0000000000000010 (
1;
b0000000000000100 0
b0000000000000010 *
#274
0;
03
#275
13
b0000000000000000 *
b0000000000000000 (
b0000000010000101 2
b0000000000000010 $
b0000000000000010 '
1;
b0000000000000010 0
#276
0;
03
#277
b0000000000000000 &
1.
b0000000010000110 2
b0000000000000000 0
13
19
0+
b0000000000000010 (
b0000000000000000 )
1;
b0000000000000000 $
b0000000000000010 *
#278
0;
03
#279
b0000000010000111 2
b0000000000000000 /
01
09
1+
b0000000000000000 ,
b0000000000000010 )
0.
13
b0000000000001010 '
1-
b0000000000000010 &
b0000000000001010 *
b0000000000001010 $
1;
b0000000000000000 :
15
b0000000000000010 0
